<?xml version="1.0" encoding="utf-8"?>
<!-- Generator: Adobe Illustrator 20.1.0, SVG Export Plug-In . SVG Version: 6.00 Build 0)  -->
<svg version="1.1" id="Capa_1" xmlns="http://www.w3.org/2000/svg" xmlns:xlink="http://www.w3.org/1999/xlink" x="0px" y="0px"
	 viewBox="0 0 101.5 101" style="enable-background:new 0 0 101.5 101;" xml:space="preserve">
<style type="text/css">
	.st0{fill:none;stroke:#FFFFFF;stroke-width:2.0761;stroke-linecap:round;stroke-linejoin:round;stroke-miterlimit:10;}
	.st1{fill:none;stroke:#FFFFFF;stroke-width:2.0761;stroke-linecap:round;stroke-linejoin:round;}
	.st2{fill:none;stroke:#FFFFFF;stroke-width:2.0761;stroke-linecap:round;stroke-linejoin:round;stroke-dasharray:4.1989,4.1989;}
	.st3{fill:none;stroke:#E62686;stroke-width:2.0761;stroke-linecap:round;stroke-linejoin:round;stroke-miterlimit:10;}
</style>
<g>
	<path class="st0" d="M17,87.7c0,0,3.7-10.6,3.7-14.4c0-3.8-0.7-11.6,5.4-15.4c0,0-2-6.3,0-13.4c1.6-5.9-2.2-16.7,5.1-22.3
		c6.2-4.7,7.2-1.5,10.8-3.5s5.4-4,4.9-9.8"/>
	<path class="st0" d="M24.6,87.5c0,0,10.6-15.9,9.2-27.9c0,0,2.6-3.8,2.2-9.9c0,0,0.9,8.3,1.6,12.1s1,10.6-1.4,15.4
		c-2.4,4.8-2.8,11.1-2.8,11.1"/>
	<path class="st0" d="M61.5,8.5c0,0-0.5,6.6,0.7,7.8s4.3,1.7,5.7,2.8c0,0,10.4,0.9,12.3,6.7S81,42.2,81,42.2s3.3,6.7,0.7,14.7
		c0,0,6.2,4.2,6.1,17.1c-0.5,8.5,3.3,13.8,3.3,13.8"/>
	<path class="st0" d="M83.3,87.9c0,0-9.2-14.9-9-21.3s0.9-7.6,0.9-7.6s-3.3-3.5-3.3-9.3c0,0,0.5,8.7-1,13.3S70,76.1,73.2,79.8
		c2.1,5.9,1.4,8.8,1.4,8.8"/>
	<g>
		<g>
			<path class="st1" d="M54.6,11.1c0,0,0,0.8,0.1,2.1"/>
			<path class="st2" d="M54.8,17.3c0.4,9.1,0.8,26-0.3,34.7c-1.4,11.1-0.5,23.9,0.1,30.3"/>
			<path class="st1" d="M54.8,84.4c0.1,1.3,0.2,2.1,0.2,2.1"/>
		</g>
	</g>
	<polyline class="st3" points="58.9,51.4 58,59.9 64.9,55.9 59.7,62.8 66.1,64.9 60.6,67.3 64.6,74.7 57.7,69.9 57.7,77.2 	"/>
	<polyline class="st3" points="49.4,51.4 50.2,59.9 43.3,55.9 48.5,62.8 42.1,64.9 47.6,67.3 43.7,74.7 50.6,69.9 50.6,77.2 	"/>
</g>
</svg>
