<?xml version="1.0" encoding="utf-8"?>
<!-- Generator: Adobe Illustrator 22.1.0, SVG Export Plug-In . SVG Version: 6.00 Build 0)  -->
<svg version="1.1" id="Capa_1" xmlns="http://www.w3.org/2000/svg" xmlns:xlink="http://www.w3.org/1999/xlink" x="0px" y="0px"
	 viewBox="0 0 101.5 101" style="enable-background:new 0 0 101.5 101;" xml:space="preserve">
<style type="text/css">
	.st0{fill:none;stroke:#FFFFFF;stroke-width:4;stroke-linecap:round;stroke-linejoin:round;stroke-miterlimit:10;}
	.st1{fill:none;stroke:#FFFFFF;stroke-width:2.0236;stroke-linecap:round;stroke-linejoin:round;stroke-miterlimit:10;}
	.st2{fill:#FFFFFF;}
</style>
<g>
	<line class="st0" x1="94.6" y1="24.3" x2="94.6" y2="90.6"/>
	<line class="st0" x1="6.9" y1="41.5" x2="6.9" y2="90.6"/>
	<line class="st1" x1="8" y1="76.4" x2="93.5" y2="76.4"/>
	<rect x="8" y="64.2" class="st2" width="85.5" height="7.1"/>
	<line class="st1" x1="31.9" y1="40" x2="31.9" y2="15.1"/>
	<line class="st1" x1="31.9" y1="18" x2="26.6" y2="18"/>
	<path class="st1" d="M22.7,18h-5.2c0,0-1.8-0.7-1.8-2.9"/>
	<path class="st2" d="M19.5,21.2c0,0-0.1-5.7,1.8-5.9c1.8-0.2,3.1,0.1,3.1,0.1l2.5,36.1l-9.2-2.9L19.5,21.2z"/>
	<path class="st1" d="M45.3,53.1c0,0-25.7,0-28.1,0s-3.3,1.2-3.3,3c0,3,2.9,3.1,2.9,3.1s46.3,0,48,0c1.7,0,4.2-1.1,4.2-5.2
		s-4.6-4.6-4.6-4.6H48c0,0-26.5-8.6-29.1-9s-3.4,2-3.4,2s-1.3,3.2,4.8,5.2c6.6,2.2,20.7,5.6,20.7,5.6"/>
	<path class="st1" d="M71.7,48.7c0,0,3.2,3.5,8.9-1.2c5-4.1,0.3-12.7-7.2-7.2C68.7,44.8,71.7,48.7,71.7,48.7z"/>
	<path class="st2" d="M88.6,47.4c0.9,0,1.5,0.7,1.6,2.2c0,0,0,2.7,0,3.5c0,1.2-1.2,6.9-7,6.9h-9.7c0,0-1.4-0.2-1.4-1.3
		s1.2-1.8,1.2-1.8L85,49.1C85,49.1,87.1,47.4,88.6,47.4z"/>
</g>
</svg>
