<?xml version="1.0" encoding="utf-8"?>
<!-- Generator: Adobe Illustrator 22.1.0, SVG Export Plug-In . SVG Version: 6.00 Build 0)  -->
<svg version="1.1" id="Capa_1" xmlns="http://www.w3.org/2000/svg" xmlns:xlink="http://www.w3.org/1999/xlink" x="0px" y="0px"
	 viewBox="0 0 50 50" style="enable-background:new 0 0 50 50;" xml:space="preserve">
<style type="text/css">
	.st0{fill:#236185;}
	.st1{fill:#FFFFFF;}
	.st2{fill:#D1AE6C;}
</style>
<circle class="st0" cx="25" cy="25" r="25"/>
<g>
	<g>
		<path class="st1" d="M10.4,11.7H12c0.3,0,0.6,0.1,0.9,0.2c0.3,0.1,0.5,0.3,0.7,0.4c0.2,0.2,0.4,0.4,0.5,0.7
			c0.1,0.3,0.2,0.5,0.2,0.8v0c0,0.3-0.1,0.6-0.2,0.8c-0.1,0.3-0.3,0.5-0.5,0.7c-0.2,0.2-0.4,0.3-0.7,0.4c-0.3,0.1-0.6,0.2-0.9,0.2
			h-1.6V11.7z M11.2,12.3v2.9H12c0.2,0,0.4,0,0.6-0.1s0.3-0.2,0.5-0.3c0.1-0.1,0.2-0.3,0.3-0.5c0.1-0.2,0.1-0.4,0.1-0.6v0
			c0-0.2,0-0.4-0.1-0.6c-0.1-0.2-0.2-0.3-0.3-0.5c-0.1-0.1-0.3-0.2-0.5-0.3s-0.4-0.1-0.6-0.1H11.2z"/>
		<path class="st1" d="M15.1,11.7H17c0.3,0,0.5,0,0.7,0.1c0.2,0.1,0.4,0.2,0.5,0.3c0.1,0.1,0.2,0.3,0.3,0.4c0.1,0.2,0.1,0.3,0.1,0.5
			v0c0,0.3-0.1,0.6-0.3,0.8c-0.2,0.2-0.4,0.4-0.7,0.4l1.1,1.6h-0.9l-1-1.5h-0.9v1.5h-0.7V11.7z M17,13.8c0.3,0,0.5-0.1,0.6-0.2
			c0.2-0.1,0.2-0.3,0.2-0.5v0c0-0.2-0.1-0.4-0.2-0.5c-0.2-0.1-0.4-0.2-0.6-0.2h-1.1v1.4H17z"/>
		<path class="st1" d="M21,11.6h0.7l1.9,4.3h-0.8l-0.4-1h-2l-0.4,1h-0.8L21,11.6z M22.1,14.2l-0.7-1.7l-0.7,1.7H22.1z"/>
		<path class="st1" d="M24.1,15.1h0.8v0.8h-0.8V15.1z"/>
		<path class="st1" d="M10.4,17.9h0.8l1.3,2l1.3-2h0.8v4.2h-0.7v-3l-1.3,2h0l-1.3-2v3h-0.7V17.9z"/>
		<path class="st1" d="M17.1,17.8h0.7l1.9,4.3h-0.8l-0.4-1h-2l-0.4,1h-0.8L17.1,17.8z M18.2,20.4l-0.7-1.7l-0.7,1.7H18.2z"/>
		<path class="st1" d="M21.7,20.4L20,17.9h0.9l1.2,1.9l1.2-1.9h0.9l-1.7,2.5v1.7h-0.7V20.4z"/>
		<path class="st1" d="M24.7,17.9h1.9c0.3,0,0.5,0,0.7,0.1c0.2,0.1,0.4,0.2,0.5,0.3c0.1,0.1,0.2,0.3,0.3,0.4
			c0.1,0.2,0.1,0.3,0.1,0.5v0c0,0.3-0.1,0.6-0.3,0.8c-0.2,0.2-0.4,0.4-0.7,0.4l1.1,1.6h-0.9l-1-1.5h-0.9v1.5h-0.7V17.9z M26.6,20
			c0.3,0,0.5-0.1,0.6-0.2c0.2-0.1,0.2-0.3,0.2-0.5v0c0-0.2-0.1-0.4-0.2-0.5c-0.2-0.1-0.4-0.2-0.6-0.2h-1.1V20H26.6z"/>
		<path class="st1" d="M30.6,17.8h0.7l1.9,4.3h-0.8l-0.4-1h-2l-0.4,1h-0.8L30.6,17.8z M31.7,20.4l-0.7-1.7l-0.7,1.7H31.7z"/>
		<path class="st1" d="M14.2,28.4L13.7,28c-0.2,0.1-0.4,0.2-0.6,0.3c-0.2,0.1-0.4,0.1-0.7,0.1c-0.3,0-0.6-0.1-0.9-0.2
			c-0.3-0.1-0.5-0.3-0.7-0.5c-0.2-0.2-0.3-0.4-0.5-0.7c-0.1-0.3-0.2-0.5-0.2-0.8v0c0-0.3,0.1-0.6,0.2-0.8c0.1-0.3,0.3-0.5,0.5-0.7
			c0.2-0.2,0.4-0.4,0.7-0.5c0.3-0.1,0.6-0.2,0.9-0.2c0.3,0,0.6,0.1,0.9,0.2c0.3,0.1,0.5,0.3,0.7,0.5c0.2,0.2,0.3,0.4,0.5,0.7
			c0.1,0.3,0.2,0.5,0.2,0.8v0c0,0.2,0,0.5-0.1,0.7c-0.1,0.2-0.2,0.4-0.3,0.6l0.5,0.4L14.2,28.4z M12.4,27.7c0.1,0,0.3,0,0.4-0.1
			c0.1,0,0.2-0.1,0.3-0.1l-0.7-0.6l0.5-0.5l0.7,0.7c0.1-0.2,0.2-0.5,0.2-0.8v0c0-0.2,0-0.4-0.1-0.6c-0.1-0.2-0.2-0.3-0.3-0.5
			c-0.1-0.1-0.3-0.2-0.5-0.3c-0.2-0.1-0.4-0.1-0.6-0.1c-0.2,0-0.4,0-0.6,0.1c-0.2,0.1-0.3,0.2-0.4,0.3c-0.1,0.1-0.2,0.3-0.3,0.5
			C11,25.8,11,25.9,11,26.2v0c0,0.2,0,0.4,0.1,0.6c0.1,0.2,0.2,0.3,0.3,0.5c0.1,0.1,0.3,0.2,0.5,0.3C12,27.6,12.2,27.7,12.4,27.7z"
			/>
		<path class="st1" d="M17.3,28.3c-0.3,0-0.5,0-0.7-0.1c-0.2-0.1-0.4-0.2-0.6-0.4c-0.2-0.2-0.3-0.4-0.4-0.6s-0.1-0.5-0.1-0.8v-2.4
			h0.7v2.4c0,0.4,0.1,0.7,0.3,0.9c0.2,0.2,0.5,0.3,0.8,0.3c0.3,0,0.6-0.1,0.8-0.3c0.2-0.2,0.3-0.5,0.3-0.9v-2.4h0.7v2.4
			c0,0.3,0,0.6-0.1,0.8c-0.1,0.2-0.2,0.4-0.4,0.6c-0.2,0.2-0.3,0.3-0.6,0.4C17.8,28.3,17.6,28.3,17.3,28.3z"/>
		<path class="st1" d="M20.1,24.1h3.1v0.7h-2.4v1.1H23v0.7h-2.1v1.1h2.4v0.7h-3.2V24.1z"/>
		<path class="st1" d="M24,27.7l2.5-3h-2.4v-0.7h3.4v0.5l-2.5,3h2.5v0.7H24V27.7z"/>
		<path class="st1" d="M29.9,24h0.7l1.9,4.3h-0.8l-0.4-1h-2l-0.4,1H28L29.9,24z M30.9,26.6l-0.7-1.7l-0.7,1.7H30.9z"/>
		<path class="st1" d="M33.2,24.1h1.6c0.3,0,0.6,0.1,0.9,0.2c0.3,0.1,0.5,0.3,0.7,0.4s0.4,0.4,0.5,0.7c0.1,0.3,0.2,0.5,0.2,0.8v0
			c0,0.3-0.1,0.6-0.2,0.8c-0.1,0.3-0.3,0.5-0.5,0.7c-0.2,0.2-0.4,0.3-0.7,0.4c-0.3,0.1-0.6,0.2-0.9,0.2h-1.6V24.1z M33.9,24.7v2.9
			h0.8c0.2,0,0.4,0,0.6-0.1c0.2-0.1,0.3-0.2,0.5-0.3c0.1-0.1,0.2-0.3,0.3-0.5c0.1-0.2,0.1-0.4,0.1-0.6v0c0-0.2,0-0.4-0.1-0.6
			c-0.1-0.2-0.2-0.3-0.3-0.5c-0.1-0.1-0.3-0.2-0.5-0.3c-0.2-0.1-0.4-0.1-0.6-0.1H33.9z"/>
		<path class="st1" d="M39.4,24h0.7l1.9,4.3h-0.8l-0.4-1h-2l-0.4,1h-0.8L39.4,24z M40.4,26.6l-0.7-1.7L39,26.6H40.4z"/>
	</g>
	<g>
		<path class="st2" d="M10.5,34.1h3v0.4h-2.6V36h2.3v0.4h-2.3v1.8h-0.5V34.1z"/>
		<path class="st2" d="M14.5,34.1h0.5v4.2h-0.5V34.1z"/>
		<path class="st2" d="M17.6,38.4c-0.3,0-0.6-0.1-0.9-0.2c-0.3-0.1-0.5-0.3-0.8-0.5l0.3-0.4c0.2,0.2,0.4,0.4,0.7,0.5
			c0.2,0.1,0.5,0.1,0.8,0.1c0.3,0,0.5-0.1,0.7-0.2c0.2-0.1,0.3-0.3,0.3-0.5v0c0-0.1,0-0.2,0-0.3c0-0.1-0.1-0.2-0.2-0.2
			c-0.1-0.1-0.2-0.1-0.3-0.2c-0.1-0.1-0.3-0.1-0.5-0.2c-0.2-0.1-0.5-0.1-0.6-0.2c-0.2-0.1-0.3-0.2-0.4-0.2c-0.1-0.1-0.2-0.2-0.3-0.3
			c-0.1-0.1-0.1-0.3-0.1-0.5v0c0-0.2,0-0.3,0.1-0.5c0.1-0.1,0.2-0.3,0.3-0.4c0.1-0.1,0.3-0.2,0.4-0.2c0.2-0.1,0.4-0.1,0.6-0.1
			c0.3,0,0.6,0,0.8,0.1c0.2,0.1,0.5,0.2,0.7,0.4l-0.3,0.4c-0.2-0.2-0.4-0.3-0.6-0.4c-0.2-0.1-0.4-0.1-0.6-0.1
			c-0.3,0-0.5,0.1-0.7,0.2c-0.2,0.1-0.2,0.3-0.2,0.5v0c0,0.1,0,0.2,0,0.3c0,0.1,0.1,0.2,0.2,0.2c0.1,0.1,0.2,0.1,0.3,0.2
			c0.1,0.1,0.3,0.1,0.6,0.2c0.5,0.1,0.8,0.2,1,0.4c0.2,0.2,0.3,0.4,0.3,0.8v0c0,0.2,0,0.3-0.1,0.5c-0.1,0.1-0.2,0.3-0.3,0.4
			c-0.1,0.1-0.3,0.2-0.5,0.2C18,38.3,17.8,38.4,17.6,38.4z"/>
		<path class="st2" d="M20.1,34.1h0.5v4.2h-0.5V34.1z"/>
		<path class="st2" d="M23.4,34h0.4l1.9,4.3h-0.5l-0.5-1.1h-2.3l-0.5,1.1h-0.5L23.4,34z M24.5,36.8l-1-2.2l-1,2.2H24.5z"/>
		<path class="st2" d="M27.7,34.5h-1.4v-0.4h3.3v0.4h-1.4v3.8h-0.5V34.5z"/>
		<path class="st2" d="M30.5,34.1h1.8c0.3,0,0.5,0,0.7,0.1c0.2,0.1,0.4,0.2,0.5,0.3c0.1,0.1,0.2,0.2,0.2,0.4
			c0.1,0.1,0.1,0.3,0.1,0.5v0c0,0.2,0,0.3-0.1,0.5c-0.1,0.1-0.1,0.3-0.2,0.4c-0.1,0.1-0.2,0.2-0.4,0.3c-0.1,0.1-0.3,0.1-0.5,0.1
			l1.3,1.7h-0.6l-1.2-1.6H31v1.6h-0.5V34.1z M32.2,36.2c0.2,0,0.3,0,0.4-0.1c0.1,0,0.2-0.1,0.3-0.2c0.1-0.1,0.2-0.2,0.2-0.3
			c0.1-0.1,0.1-0.2,0.1-0.4v0c0-0.3-0.1-0.5-0.3-0.6c-0.2-0.1-0.5-0.2-0.8-0.2H31v1.7H32.2z"/>
		<path class="st2" d="M36.4,34h0.4l1.9,4.3h-0.5l-0.5-1.1h-2.3L35,38.3h-0.5L36.4,34z M37.6,36.8l-1-2.2l-1,2.2H37.6z"/>
	</g>
</g>
</svg>
